%YAML 1.1
%TAG !u! tag:unity3d.com,2011:
--- !u!114 &11400000
MonoBehaviour:
  m_ObjectHideFlags: 0
  m_CorrespondingSourceObject: {fileID: 0}
  m_PrefabInstance: {fileID: 0}
  m_PrefabAsset: {fileID: 0}
  m_GameObject: {fileID: 0}
  m_Enabled: 1
  m_EditorHideFlags: 1
  m_Script: {fileID: 11500000, guid: 11a0605f1e3332e4ba21b2409a81f872, type: 3}
  m_Name: Key
  m_EditorClassIdentifier: 
  ioTex: {fileID: 2800000, guid: 49cc006387237c448a21a734a442a681, type: 3}
