%YAML 1.1
%TAG !u! tag:unity3d.com,2011:
--- !u!114 &11400000
MonoBehaviour:
  m_ObjectHideFlags: 0
  m_CorrespondingSourceObject: {fileID: 0}
  m_PrefabInstance: {fileID: 0}
  m_PrefabAsset: {fileID: 0}
  m_GameObject: {fileID: 0}
  m_Enabled: 1
  m_EditorHideFlags: 1
  m_Script: {fileID: 11500000, guid: 6347af95b909ce6478c1b1a528026eb7, type: 3}
  m_Name: SkeletonSpawner
  m_EditorClassIdentifier: 
  enemySpawnerTex1: {fileID: 2800000, guid: e0825eebaf5d351468355b52ca811bf1, type: 3}
  enemySpawnerTex2: {fileID: 2800000, guid: fa4897b3806572c44a31b6407db21437, type: 3}
  enemySpawnerTex3: {fileID: 2800000, guid: fa4897b3806572c44a31b6407db21437, type: 3}
  enemySpawnerName: SkeletonSpawner
  spawnerHealth: 123
  spawnInterval: 3
  enemyTex: {fileID: 2800000, guid: ba10e3ae51b5baf4c8b26294f49df07e, type: 3}
  enemyName: Skeleton
  enemyHealth: 90
  enemyDamage: 35
  enemyWeaponName: WarHammer
  enemyWeaponDamage: 50
  enemySpeed: 25
