%YAML 1.1
%TAG !u! tag:unity3d.com,2011:
--- !u!114 &11400000
MonoBehaviour:
  m_ObjectHideFlags: 0
  m_CorrespondingSourceObject: {fileID: 0}
  m_PrefabInstance: {fileID: 0}
  m_PrefabAsset: {fileID: 0}
  m_GameObject: {fileID: 0}
  m_Enabled: 1
  m_EditorHideFlags: 1
  m_Script: {fileID: 11500000, guid: 2f08a7e332187d4479200c2394ee2144, type: 3}
  m_Name: TileFloor
  m_EditorClassIdentifier: 
  f_w_Tex: {fileID: 2800000, guid: 3e49a3f0b084c8f4aa1204e0eda931f7, type: 3}
  f_w_Name: TileFloor
  typeIndex: 0
  collidable: 0
  destructible: 0
